{
  "name": "Bioan",
  "entrypoint": "public/index.html",
  "shell": "public/bioan-app.html",
  "fragments": [
    "public/views/bioan-home.html",
    "public/views/bioan-profile.html"
  ],

  "sources": [
    "public/**/*"
  ],

  "lint": {
    "rules": [
      "polymer-2"
    ]
  }
}
